<svg xmlns="http://www.w3.org/2000/svg" width="804" height="1130" viewBox="0 0 804 1130">
  <g id="Group_30" data-name="Group 30" transform="translate(-2175 2142)">
    <circle id="Ellipse_55" data-name="Ellipse 55" cx="402" cy="402" r="402" transform="translate(2175 -1844)" fill="#0086b9"/>
    <g id="Group_28" data-name="Group 28" transform="translate(930 -290)">
      <path id="Path_17" data-name="Path 17" d="M0,29.293H0s49.234-55.9,102.953-14.18,113.176,5.269,113.176,5.269" transform="translate(1892.273 -1091.008) rotate(169)" fill="none" stroke="#e89300" stroke-linejoin="round" stroke-width="30"/>
      <circle id="Ellipse_49" data-name="Ellipse 49" cx="52" cy="52" r="52" transform="translate(1730 -1233)" fill="#fff"/>
      <path id="Path_21" data-name="Path 21" d="M1733-990.935l85.015,41.739L1760.82-841.251" transform="translate(-141.079 -477.709) rotate(14)" fill="none" stroke="#fff" stroke-linejoin="round" stroke-width="35"/>
      <text id="c" transform="translate(1401 -947)" fill="#fff" font-size="900" font-family="Muli-ExtraLight, Muli" font-weight="200" letter-spacing="0.03em"><tspan x="0" y="0">c</tspan></text>
    </g>
  </g>
</svg>
